{
    "version": "1.0.0",
    "configurations": [
        {
            "server": "http://demo.redmine.org/",
            "username": "USERNAME",
            "password": "PASSWORD",
            "project": "redmineoverview",
            "sprint": "",
            "current_sprint": "",
            "output": "current_sprint.xlsx",
            "teams": [
                "Team 1",
                "Team 2",
                "Team 3"
            ],
            "issue_types": [
                {
                    "id": "#",
                    "search": "(?<=#)[0-9]+",
                    "link": "foo.bar/{}"
                }
            ]
        }
    ]
}